{
    "common": {
        "vdb_path": "./shading_bounces.vdb",
        "parameters": {
            "bounces": 1,
            "pass": "beauty,indirect",
            "filter": "center"
        }
    },
    "tests": {
        "tokens_zero": {
            "graph":"tokens_zero",
            "parameters": {
                "bounces": 5
            }
        },
        "tokens_recursive": {
            "graph":"tokens_recursive",
            "parameters": {
                "bounces": 5,
                "pass": "beauty,reflection_direct,reflection_indirect,refraction_direct,refraction_indirect"
            }
        },
        "transparency": {
            "graph": "transparency",
            "parameters": {
                "pass": "beauty,diffuse_direct,indirect",
                "resolution": "256x256"
            }
        },
        "transparency_stack": {
            "graph": "transparency_stack",
            "parameters": {
                "resolution": "128x128",
                "samples": 4,
                "bounces": 2,
                "ignore_transparency_bounces": 0,
                "camera": "Camera_001",
                "filter": "triangle",
                "pass": "beauty,indirect"
            }
        },
        "transparency_stack_shadows": {
            "graph": "transparency_stack_shadows",
            "parameters": {
                "samples": 4,
                "ignore_transparency_bounces": 0,
                "filter": "triangle",
                "pass": "beauty,indirect"
            }
        },
        "transparency_color": {
            "graph": "transparency_color",
            "parameters": {
                "samples": 4,
                "pass": "beauty,indirect,reflection",
                "filter": "triangle"
            }
        },
        "transparency_alpha": {
            "graph": "transparency_alpha",
            "parameters": {
                "camera": "Camera_001",
                "resolution": "128x128"
            }
        },
        "transparency_diffuse_ambient": {
            "graph": "transparency_diffuse_ambient",
            "parameters": {
                "samples": 4,
                "bounces": 2,
                "camera": "Camera_001",
                "resolution": "256x256",
                "pass": "beauty,diffuse_color"
            }
        },
        "cut_rays": {
            "graph": "cut_rays",
            "frame_range": { "start":0, "end":3 },
            "parameters": {
                "samples": 4,
                "bounces": 1,
                "pass": "beauty,indirect"
            }
        },
        "caustics_flags": {
            "graph": "caustics_flags",
            "parameters": {
                "resolution": "640x360",
                "samples": 9,
                "bounces": 3,
                "camera": "Camera_001",
                "pass": "beauty,indirect"
            }
        },
        "bsdfs_passes": {
            "graph": "bsdfs_passes",
            "parameters": {
                "samples": 16,
                "bounces": 5,
                "pass": "beauty,diffuse,diffuse_direct,diffuse_indirect,glossy,glossy_direct,glossy_indirect,reflection,reflection_direct,reflection_indirect,refraction,refraction_direct,refraction_indirect,glossy_reflection_refraction,indirect"
            }
        }
    }
}