{
    "common": {
        "vdb_path": "./shading_transluency.vdb",
        "parameters": {
            "samples": 9,
            "resolution": "256x256"
        }
    },
    "tests": {
        "microfacet_direct_lighting": {
            "graph":"microfacet_direct_lighting",
            "parameters": {
                "pass": "beauty,diffuse_direct,diffuse_color"
            }
        },
        "microfacet_indirect_lighting": {
            "graph":"microfacet_indirect_lighting",
            "parameters": {
                "bounces": 5,
                "pass": "beauty,diffuse_direct,diffuse_color"
            }
        }
    }
}