{
    "common": {
        "vdb_path": "./lighting_leaking.vdb",
        "parameters": {
            "resolution": "320x180",
            "samples": 9,
            "bounces": 0,
            "pass": "beauty,diffuse_direct,glossy_direct"
        }
    },
    "tests": {
        "direct_light_leaking_all_bsdfs": {
            "graph":"direct_light_leaking",
            "parameters": {
                "camera": "camera_all_bsdfs",
                "resolution": "256x256"
            }
        },
        "direct_light_leaking_refraction": {
            "graph":"direct_light_leaking",
            "parameters": {
                "camera": "camera_refract_leak"
            }
        },
        "indirect_light_leaking": {
            "graph":"indirect_light_leaking",
            "parameters": {
                "bounces": 1,
                "pass": "beauty,indirect"
            }
        }
    }
}