{
    "common": {
        "vdb_path": "./lighting_spot.vdb",
        "frame_range": { "start":0, "end":2 },
        "parameters": {
            "filter": "center",
            "resolution": "160x90"
        }
    },
    "tests": {
        "radius": {
            "graph":"radius",
            "parameters": {
                "samples": 4
            }
        },
        "angle": {
            "graph":"angle"
        },
        "intensity": {
            "graph":"intensity"
        },
        "decay": {
            "graph":"decay",
            "frame_range": { "start":0, "end":3 }
        },
        "exposure": {
            "graph":"exposure"
        },
        "intensity": {
            "graph":"intensity"
        },
        "penumbra": {
            "graph":"penumbra"
        },
        "shaded": {
            "graph":"shaded",
            "frame_range": { "start":0, "end":0 }
        }
    }
}