{
    "common": {
        "vdb_path": "./geometry_instancing.vdb",
        "parameters": {
            "filter": "center"
        }
    },
    "tests": {
        "massive": {
            "graph":"massive"
        },
        "instancer_visibility": {
            "graph":"instancer_visibility",
            "parameters":{
                "bounces":1
            }
        },
        "instance_set": {
            "graph":"instance_set"
        },
        "motion_blur": {
            "graph":"motion_blur",
            "frame_range": { "start": 0, "end": 1, "shutter": 1.0 },
            "parameters":{
                "samples": 5,
                "resolution": "128x128",
                "filter": "triangle"
            }
        },
        "animated_visibility": {
            "graph":"animated_visibility",
            "frame_range": { "start": 0, "end": 1}
        },
        "animated_spawn": {
            "graph":"animated_spawn",
            "frame_range": { "start": 1, "end": 5},
            "parameters":{
                "resolution": "320x180"
            }

        }
    }
}